<?xml version="1.0" encoding="utf-8"?>
<!-- Generator: Adobe Illustrator 15.0.0, SVG Export Plug-In . SVG Version: 6.00 Build 0)  -->
<!DOCTYPE svg PUBLIC "-//W3C//DTD SVG 1.1//EN" "http://www.w3.org/Graphics/SVG/1.1/DTD/svg11.dtd">
<svg version="1.1" id="Layer_1" xmlns="http://www.w3.org/2000/svg" xmlns:xlink="http://www.w3.org/1999/xlink" x="0px" y="0px"
	 width="326.667px" height="142.667px" viewBox="0 0 326.667 142.667" enable-background="new 0 0 326.667 142.667"
	 xml:space="preserve">
<path fill-rule="evenodd" clip-rule="evenodd" fill="#FFFFFF" d="M124.853,56.646v69.02h-11v-69.02H124.853z M307.903,83.657v42.01
	h-13.01v-45.01c-3-11-14-14-22-14c-15,0-25.01,10-25.01,25c0,14,10.01,24.01,24.01,24.01c5,0,8-2,17-8c5,17-8,19-19,19
	c-24.01,0-34.01-18-34.01-36.01c0-23,14-35.01,36.01-35.01C286.893,55.646,307.903,63.657,307.903,83.657z M228.883,54.646v11.01
	c-10-4.01-22.01,12-22.01,21v39.01h-11v-69.02h11c0,2,0,4,1,6.01c4-3.01,8.01-6.01,12.01-8.01H228.883z M162.863,38.646v18h27.01
	v11.01h-27.01v40.01c5,10,16.01,6,25.01,6v12h-22.01c-8,0-15-11-15-18v-69.02H162.863z M126.863,39.646c0,5-3.01,7-7.01,7
	c-6,0-7-3-7-7s3-7,7-7S126.863,35.646,126.863,39.646z M49.843,54.646c9,16.01,17,35.01,26,52.02v-83.02h13.01v97.02
	c-2,3-6,7-9.01,7c-15,0-19-22.01-24-31.01c-9-18-17-36.01-27.01-54.01v83.02h-13v-94.02c1-5,9-8,12-8
	C40.843,23.646,46.843,49.646,49.843,54.646z M294.893,22.646c0,1,1,2,1,5l-2,2c-1-1-2-1-4-1v-6H294.893z M295.893,21.646
	c1,1,2,2,2,4c0,3-1,4-3,5c2,3,4,6,2,9c0-2-1-5-3-8h-4c-1,3-1,6-2,8v-18H295.893z M307.903,29.646c0,10-8.01,17-16.01,17
	c-11,0-16-11-16-17c0-9,7-15.01,16-15.01C301.903,14.637,307.903,22.646,307.903,29.646z M309.903,30.646c0,10-8,18-18.01,18
	c-11,0-18-8-18-18c0-11,7-18.01,18-18.01C301.903,12.637,309.903,19.646,309.903,30.646z"/>
</svg>
